<?xml version="1.0" encoding="UTF-8" standalone="no"?>
<!DOCTYPE svg PUBLIC "-//W3C//DTD SVG 1.1//EN" "http://www.w3.org/Graphics/SVG/1.1/DTD/svg11.dtd">
<svg width="100%" height="100%" viewBox="0 0 525 259" version="1.1" xmlns="http://www.w3.org/2000/svg" xmlns:xlink="http://www.w3.org/1999/xlink" xml:space="preserve" xmlns:serif="http://www.serif.com/" style="fill-rule:evenodd;clip-rule:evenodd;stroke-linejoin:round;stroke-miterlimit:1.41421;">
    <g transform="matrix(4.16667,0,0,4.16667,0,0)">
        <path d="M8.881,4.798C8.797,3.727 8.083,2.698 6.487,2.698C4.997,2.698 4.073,3.496 4.073,4.63C4.073,5.701 4.661,6.352 6.193,6.625L8.629,7.066C11.484,7.59 12.87,9.123 12.87,11.496C12.87,14.939 10.519,16.829 6.424,16.829C2.414,16.829 0.167,14.897 0,11.895L3.59,11.895C3.758,13.28 4.724,14.309 6.508,14.309C8.419,14.309 9.301,13.343 9.301,12.126C9.301,11.013 8.692,10.425 7.012,10.11L4.619,9.648C2.141,9.165 0.482,7.674 0.482,5.113C0.482,2.278 2.666,0.2 6.508,0.2C10.582,0.2 12.303,2.299 12.408,4.798L8.881,4.798Z" style="fill:white;fill-rule:nonzero;"/>
        <path d="M26.982,3.139L22.237,3.139L22.237,16.493L18.793,16.493L18.793,3.139L14.048,3.139L14.048,0.431L26.982,0.431L26.982,3.139Z" style="fill:white;fill-rule:nonzero;"/>
        <rect x="29.651" y="0.431" width="3.443" height="16.062" style="fill:white;fill-rule:nonzero;"/>
        <path d="M40.339,16.493L36.896,16.493L36.896,0.431L46.995,0.431L46.995,3.055L40.339,3.055L40.339,7.716L46.617,7.716L46.617,10.299L40.339,10.299L40.339,16.493Z" style="fill:white;fill-rule:nonzero;"/>
        <path d="M61.82,3.139L57.075,3.139L57.075,16.493L53.632,16.493L53.632,3.139L48.887,3.139L48.887,0.431L61.82,0.431L61.82,3.139Z" style="fill:white;fill-rule:nonzero;"/>
        <path d="M63.986,0.431L67.43,0.431L67.408,9.795C67.408,10.95 67.43,12.273 68.038,13.049C68.626,13.784 69.466,14.099 70.537,14.099C71.691,14.099 72.553,13.784 73.119,13.049C73.707,12.273 73.665,10.95 73.665,9.795L73.665,0.431L77.066,0.431L77.066,10.887C77.066,14.939 74.441,16.829 70.494,16.829C66.547,16.829 63.986,14.96 63.986,10.887L63.986,0.431Z" style="fill:white;fill-rule:nonzero;"/>
        <path d="M80.49,0.431L84.291,0.431L89.477,9.123C90.296,10.509 90.632,11.517 90.632,11.517L90.695,11.517L90.695,0.431L93.844,0.431L93.844,16.493L90.212,16.493L84.879,7.632C84.018,6.226 83.661,5.197 83.661,5.197L83.598,5.197L83.598,16.493L80.49,16.493L80.49,0.431Z" style="fill:white;fill-rule:nonzero;"/>
        <path d="M100.461,8.535C100.461,12.692 101.953,14.33 104.388,14.33C106.592,14.33 107.874,12.986 108.042,10.698L108.063,10.404L104.262,10.404L104.262,7.926L111.275,7.926L111.275,16.493L108.545,16.493L108.545,14.309L108.461,14.309C107.706,15.758 106.172,16.829 103.8,16.829C99.223,16.829 96.787,13.658 96.787,8.703C96.787,3.496 99.832,0.2 104.388,0.2C108.251,0.2 110.583,2.026 110.959,5.302L107.454,5.302C107.244,3.748 106.088,2.677 104.388,2.677C101.889,2.677 100.461,4.714 100.461,8.535Z" style="fill:white;fill-rule:nonzero;"/>
        <path d="M0.692,23.026L5.689,23.026L8.587,31.656C9.049,33 9.259,34.028 9.259,34.028L9.301,34.028C9.301,34.028 9.532,33 9.973,31.656L12.849,23.026L17.846,23.026L17.846,39.088L14.445,39.088L14.445,26.512L14.382,26.512C14.382,26.512 14.025,28.002 13.395,29.913L10.393,39.088L7.831,39.088L4.808,29.913C4.178,27.981 3.863,26.533 3.863,26.533L3.8,26.533L3.8,39.088L0.692,39.088L0.692,23.026Z" style="fill:white;fill-rule:nonzero;"/>
        <path d="M21.629,23.026L32.211,23.026L32.211,25.651L25.073,25.651L25.073,29.787L31.834,29.787L31.834,32.349L25.073,32.349L25.073,36.485L32.4,36.485L32.4,39.088L21.629,39.088L21.629,23.026Z" style="fill:white;fill-rule:nonzero;"/>
        <path d="M41.641,30.522C43.153,30.522 44.455,29.85 44.455,27.939C44.455,25.987 42.964,25.42 41.704,25.42L39.248,25.42L39.248,30.522L41.641,30.522ZM41.725,32.979L39.248,32.979L39.248,39.088L35.804,39.088L35.804,23.026L42.082,23.026C43.111,23.026 44.287,23.173 45.315,23.614C46.827,24.286 47.982,25.525 47.982,27.751C47.982,30.291 46.386,31.572 44.875,32.16L44.875,32.202L48.465,39.088L44.749,39.088L41.725,32.979Z" style="fill:white;fill-rule:nonzero;"/>
        <path d="M54.094,31.152C54.094,34.826 55.501,36.842 57.79,36.842C59.68,36.842 60.75,35.645 60.939,33.629L64.445,33.629C64.277,37.094 61.8,39.424 57.874,39.424C52.877,39.424 50.378,36.38 50.378,31.278C50.378,25.987 53.149,22.795 57.811,22.795C61.736,22.795 64.235,24.853 64.467,28.464L60.918,28.464C60.75,26.575 59.574,25.357 57.811,25.357C55.648,25.357 54.094,27.331 54.094,31.152Z" style="fill:white;fill-rule:nonzero;"/>
        <path d="M72.574,28.317L71.083,33L75.324,33L73.855,28.338C73.414,26.932 73.246,25.987 73.246,25.987L73.203,25.987C73.183,26.071 72.994,27.016 72.574,28.317ZM76.164,35.519L70.264,35.519L69.088,39.088L65.792,39.088L71.398,23.026L75.262,23.026L80.951,39.088L77.34,39.088L76.164,35.519Z" style="fill:white;fill-rule:nonzero;"/>
        <path d="M93.678,25.735L88.932,25.735L88.932,39.088L85.488,39.088L85.488,25.735L80.744,25.735L80.744,23.026L93.678,23.026L93.678,25.735Z" style="fill:white;fill-rule:nonzero;"/>
        <path d="M106.194,31.11C106.194,27.268 104.598,25.273 102.331,25.273C99.895,25.273 98.487,27.226 98.487,31.11C98.487,34.973 99.811,36.905 102.331,36.905C104.766,36.905 106.194,34.931 106.194,31.11ZM102.331,22.795C107.034,22.795 109.91,25.756 109.91,31.11C109.91,36.401 106.928,39.424 102.331,39.424C97.522,39.424 94.75,36.443 94.75,31.11C94.75,25.819 97.836,22.795 102.331,22.795Z" style="fill:white;fill-rule:nonzero;"/>
        <path d="M118.417,30.522C119.928,30.522 121.229,29.85 121.229,27.939C121.229,25.987 119.739,25.42 118.479,25.42L116.022,25.42L116.022,30.522L118.417,30.522ZM118.5,32.979L116.022,32.979L116.022,39.088L112.579,39.088L112.579,23.026L118.857,23.026C119.885,23.026 121.061,23.173 122.09,23.614C123.602,24.286 124.756,25.525 124.756,27.751C124.756,30.291 123.161,31.572 121.649,32.16L121.649,32.202L125.24,39.088L121.524,39.088L118.5,32.979Z" style="fill:white;fill-rule:nonzero;"/>
        <path d="M10.036,49.927C9.847,48.352 8.944,46.946 6.697,46.946C4.514,46.946 3.338,48.184 3.338,49.717C3.338,51.187 4.136,52.027 6.025,52.383L8.293,52.783C11.421,53.35 12.513,54.882 12.513,57.17C12.513,60.11 10.519,62 6.676,62C2.96,62 0.839,60.005 0.671,57.17L2.708,57.17C2.939,58.893 4.136,60.425 6.718,60.425C9.574,60.425 10.519,59.04 10.519,57.338C10.519,55.954 9.763,54.987 7.789,54.651L5.542,54.252C2.393,53.665 1.28,51.985 1.28,49.885C1.28,47.282 3.422,45.392 6.718,45.392C10.12,45.392 11.883,47.198 12.03,49.927L10.036,49.927Z" style="fill:white;fill-rule:nonzero;"/>
        <path d="M17.345,53.686C17.345,57.842 19.192,60.405 22.405,60.405C25.239,60.405 26.415,58.494 26.625,56.667L28.62,56.667C28.368,59.69 26.037,62 22.405,62C18.227,62 15.266,59.292 15.266,53.686C15.266,48.458 18.269,45.372 22.447,45.372C25.176,45.372 28.263,46.82 28.62,50.411L26.562,50.411C26.289,48.772 25.029,46.967 22.447,46.967C19.15,46.967 17.345,49.675 17.345,53.686Z" style="fill:white;fill-rule:nonzero;"/>
        <path d="M34.334,61.685L32.381,61.685L32.381,45.624L34.334,45.624L34.334,52.699L42.753,52.699L42.753,45.624L44.706,45.624L44.706,61.685L42.753,61.685L42.753,54.442L34.334,54.442L34.334,61.685Z" style="fill:white;fill-rule:nonzero;"/>
        <path d="M52.457,61.685L47.858,45.624L49.853,45.624L53.002,57.002C53.443,58.62 53.569,59.565 53.569,59.565L53.611,59.565C53.611,59.565 53.737,58.62 54.157,57.024L57.244,45.624L59.512,45.624L62.619,57.002C63.08,58.62 63.207,59.565 63.207,59.565L63.248,59.565C63.248,59.565 63.354,58.62 63.795,57.024L66.923,45.624L68.834,45.624L64.235,61.685L62.052,61.685L58.902,50.495C58.44,48.877 58.335,47.912 58.335,47.912L58.293,47.912C58.293,47.912 58.168,48.877 57.727,50.473L54.619,61.685L52.457,61.685Z" style="fill:white;fill-rule:nonzero;"/>
        <path d="M71.987,45.624L82.254,45.624L82.254,47.366L73.939,47.366L73.939,52.719L81.582,52.719L81.582,54.42L73.939,54.42L73.939,59.942L82.359,59.942L82.359,61.685L71.987,61.685L71.987,45.624Z" style="fill:white;fill-rule:nonzero;"/>
        <rect x="86.414" y="45.624" width="1.953" height="16.061" style="fill:white;fill-rule:nonzero;"/>
        <path d="M92.106,45.624L103.36,45.624L103.36,47.114L94.246,59.963L103.528,59.963L103.528,61.685L91.77,61.685L91.77,60.194L100.903,47.344L92.106,47.344L92.106,45.624Z" style="fill:white;fill-rule:nonzero;"/>
    </g>
</svg>
