<?xml version="1.0" encoding="UTF-8" standalone="no"?>
<!DOCTYPE svg PUBLIC "-//W3C//DTD SVG 1.1//EN" "http://www.w3.org/Graphics/SVG/1.1/DTD/svg11.dtd">
<svg width="100%" height="100%" viewBox="0 0 3038 2475" version="1.1" xmlns="http://www.w3.org/2000/svg" xmlns:xlink="http://www.w3.org/1999/xlink" xml:space="preserve" xmlns:serif="http://www.serif.com/" style="fill-rule:evenodd;clip-rule:evenodd;stroke-linejoin:round;stroke-miterlimit:1.41421;">
    <g transform="matrix(4.16667,0,0,4.16667,0,0)">
        <path d="M713.124,85.834C706.928,88.051 707.406,148.165 707.004,156.022C705.769,179.494 703.503,203.042 702.168,226.387C699.373,275.194 714.054,337.5 688.77,382.58C677.034,403.458 648.627,410.106 627.32,416.074C595.689,424.915 562.748,429.095 529.883,428.39C508.023,427.886 487.876,432.923 466.469,432.822C436.021,432.722 403.986,425.167 375.201,415.823C343.318,405.472 321.584,397.791 321.459,360.443C321.131,272.726 320.853,185.035 320.551,97.319C444.18,137.94 590.601,129.655 713.124,85.834Z" style="fill:rgb(208,36,42);fill-rule:nonzero;"/>
        <path d="M558.45,143.856C504.278,149.068 449.174,148.289 395.029,140.985C373.824,138.139 351.788,136.779 331.867,128.191C322.171,124.061 313.18,118.017 306.91,109.404C302.527,103.41 303.585,98.827 303.786,91.599C304.113,83.263 304.391,74.927 304.693,66.616C304.744,64.979 304.794,63.292 304.844,61.604C305.02,56.115 307.01,53.596 311.115,50.272C309.378,57.726 310.863,66.364 315.774,72.535C324.992,83.893 340.177,88.023 354.482,90.768C459.777,110.789 567.995,96.106 673.919,81.349C685.529,79.687 697.441,78.05 706.683,71.351C714.137,65.912 717.992,57.776 718.168,48.71C718.344,40.828 721.996,48.182 723.985,52.186C727.713,59.59 727.864,67.12 728.392,75.279C728.922,83.464 729.601,93.714 723.658,100.262C718.999,105.45 713.181,109.53 707.137,112.955C692.278,121.417 675.43,126.353 658.883,130.231C625.842,138.013 592.12,140.632 558.45,143.856Z" style="fill:rgb(0,120,61);fill-rule:nonzero;"/>
        <path d="M711.771,71.849C702.276,78.725 690.037,80.413 678.149,82.1C569.429,97.286 458.316,112.32 350.251,91.796C335.568,88.975 319.979,84.719 310.485,73.058C305.473,66.712 303.937,57.872 305.7,50.191C319.148,39.161 339.649,33.872 357.756,29.49C387.473,22.715 416.713,12.239 446.706,6.824C489.897,-0.555 534.473,-1.436 577.992,4.381C609.774,8.511 642.009,10.626 672.458,21.078C684.697,25.486 699.934,30.372 712.651,38.153C716.53,40.747 720.106,43.316 723.304,46.515C725.169,55.379 719.854,65.906 711.771,71.849Z" style="fill:rgb(78,184,72);fill-rule:nonzero;"/>
        <path d="M651.847,182.365C567.731,206.492 479.939,213.216 392.525,209.614C390.108,252.479 387.765,295.316 385.348,338.18C478.277,348.682 573.222,340.724 661.568,310.201C657.237,268.874 651.091,223.919 651.847,182.365Z" style="fill:white;fill-rule:nonzero;"/>
        <path d="M409.594,247.01C403.398,249.227 403.877,309.341 403.474,317.199C402.24,340.671 399.973,364.218 398.638,387.564C395.842,436.371 410.525,498.676 385.241,543.756C373.505,564.634 345.097,571.282 323.791,577.251C292.159,586.091 259.217,590.271 226.353,589.566C204.493,589.062 184.346,594.099 162.94,593.999C132.491,593.898 100.457,586.343 71.671,577C39.788,566.649 18.054,558.967 17.928,521.62C17.601,433.903 17.323,346.211 17.022,258.495C140.651,299.116 287.072,290.831 409.594,247.01Z" style="fill:rgb(208,36,42);fill-rule:nonzero;"/>
        <path d="M254.921,305.032C200.749,310.245 145.645,309.465 91.499,302.161C70.294,299.315 48.258,297.956 28.337,289.368C18.641,285.237 9.65,279.193 3.38,270.58C-1.002,264.586 0.055,260.002 0.256,252.775C0.584,244.439 0.861,236.103 1.163,227.792C1.214,226.155 1.264,224.468 1.315,222.78C1.49,217.291 3.48,214.772 7.585,211.448C5.847,218.902 7.333,227.54 12.244,233.711C21.462,245.069 36.648,249.199 50.952,251.944C156.248,271.965 264.465,257.283 370.389,242.525C382,240.863 393.912,239.226 403.154,232.526C410.608,227.087 414.462,218.952 414.638,209.886C414.815,202.004 418.466,209.357 420.456,213.362C424.182,220.766 424.335,228.295 424.863,236.456C425.391,244.641 426.072,254.89 420.129,261.438C415.469,266.626 409.652,270.707 403.608,274.131C388.749,282.593 371.901,287.529 355.354,291.408C322.313,299.189 288.591,301.809 254.921,305.032Z" style="fill:rgb(0,120,61);fill-rule:nonzero;"/>
        <path d="M408.241,233.025C398.747,239.901 386.508,241.588 374.62,243.275C265.9,258.461 154.787,273.497 46.721,252.972C32.038,250.151 16.45,245.895 6.955,234.234C1.943,227.888 0.407,219.048 2.17,211.367C15.618,200.337 36.119,195.047 54.226,190.666C83.943,183.891 113.183,173.415 143.177,168.001C186.367,160.621 230.944,159.74 274.463,165.557C306.245,169.688 338.48,171.802 368.928,182.254C381.168,186.662 396.405,191.547 409.122,199.329C413.001,201.923 416.577,204.492 419.775,207.69C421.638,216.555 416.325,227.082 408.241,233.025Z" style="fill:rgb(78,184,72);fill-rule:nonzero;"/>
        <path d="M348.318,343.542C264.202,367.668 176.41,374.392 88.995,370.791C86.578,413.655 84.235,456.493 81.818,499.356C174.748,509.858 269.693,501.9 358.039,471.376C353.708,430.05 347.562,385.096 348.318,343.542Z" style="fill:white;fill-rule:nonzero;"/>
    </g>
</svg>
